<?xml version="1.0" encoding="UTF-8"?>
<svg xmlns='http://www.w3.org/2000/svg' width="256" height="256" viewBox="0 0 30 31" id="mulesoft-logo">
  <path d="M22 13c0 3.614-2.131 6.729-5.204 8.161l-.794-2.962c1.794-1.038 3.003-2.977 3.003-5.199 0-1.011-.252-1.964-.693-2.8L14.251 16H11.75l-4.062-5.8c-.441.836-.693 1.789-.693 2.8 0 2.222 1.209 4.161 3.003 5.199l-.794 2.962C6.131 19.729 4 16.614 4 13c0-3.14 1.609-5.903 4.047-7.513L13 12.559l4.953-7.072C20.391 7.097 22 9.86 22 13zm3 0c0 6.627-5.373 12-12 12S1 19.627 1 13 6.373 1 13 1s12 5.373 12 12zm-1 0c0-6.075-4.925-11-11-11S2 6.925 2 13s4.925 11 11 11 11-4.925 11-11z"></path>
</svg>