<?xml version="1.0" encoding="UTF-8"?>
<svg xmlns:xlink="http://www.w3.org/1999/xlink" xmlns="http://www.w3.org/2000/svg" width="256" height="256" viewBox="0 0 30 31" fill="none">
  <path d="M11.687 22.554V11.016h2.308v11.538h-2.308z" fill="#087299"></path>
  <path d="M16.303 22.554V8.708h2.307v13.846h-2.307z" fill="#00A3E0"></path>
  <path d="M7.072 22.554v-5.77H9.38v5.77H7.072z" fill="#114459"></path>
  <path d="M23.226 14.746v-2.638h-2.308v6.635l2.308-3.997z" fill="#00A3E0"></path>
  <path d="M9.88 27.17h11.547l6.032-10.449-1.332-2.307-6.033 10.448H8.55l1.331 2.307z" fill="#114459"></path>
  <path d="M3.873 16.764L9.838 6.4H21.5l-1.333-2.308H8.506L2.541 14.456l1.332 2.308z" fill="#00A3E0"></path>
</svg>