  <svg version="1.1" xmlns="http://www.w3.org/2000/svg" xmlns:xlink="http://www.w3.org/1999/xlink" viewBox="0 0 26 26" id="application-color">
    <path fill="#114459" d="M14 9.517h-2v-6.07h2v6.07zm0 6.667h-2v6.07h2v-6.07z"></path>
    <path fill="#087299" d="M18.419 12.39L13 8.595 7.581 12.39 2 16.298 13 24l11-7.702-5.581-3.908zM5.487 16.298l3.838-2.688-.872-.61L13 9.816 17.547 13l-.872.61 3.838 2.688L13 21.558l-7.513-5.26z"></path>
    <path fill="#00A3E0" d="M13 2L2 9.702l11 7.703 11-7.703L13 2zM5.487 9.702L13 4.442l7.513 5.26L13 14.963 5.487 9.702z"></path>
  </svg>