  <svg version="1.1" xmlns="http://www.w3.org/2000/svg" xmlns:xlink="http://www.w3.org/1999/xlink" viewBox="0 0 16 16" id="bell-active-small">
    <path d="M12.949 13.227a.861.861 0 0 1-.86-.86V9.746a4.077 4.077 0 0 0-2.341-3.7 1.76 1.76 0 0 0-3.5 0 4.076 4.076 0 0 0-2.341 3.7v2.62a.861.861 0 0 1-.86.86.3.3 0 0 0 0 .609h3.517a1.468 1.468 0 0 0 2.872 0h3.513a.3.3 0 0 0 0-.609zM8 14.391a.856.856 0 0 1-.8-.556h1.6a.856.856 0 0 1-.8.556zm-3.759-1.164a1.461 1.461 0 0 0 .279-.86V9.746a3.469 3.469 0 0 1 2.141-3.211.3.3 0 0 0 .187-.281 1.151 1.151 0 0 1 2.3 0 .3.3 0 0 0 .187.281 3.472 3.472 0 0 1 2.145 3.211v2.62a1.461 1.461 0 0 0 .279.86zM6.254 2.746a3.511 3.511 0 0 0-3.508 3.508.3.3 0 1 0 .609 0 2.9 2.9 0 0 1 2.9-2.9.3.3 0 1 0 0-.609z"></path>
    <path d="M6.254 1.609a.3.3 0 1 0 0-.609A5.26 5.26 0 0 0 1 6.254a.3.3 0 1 0 .609 0 4.65 4.65 0 0 1 4.645-4.645zm3.492 1.137a.3.3 0 1 0 0 .609 2.9 2.9 0 0 1 2.9 2.9.3.3 0 1 0 .609 0 3.511 3.511 0 0 0-3.509-3.509z"></path>
    <path d="M9.746 1a.3.3 0 1 0 0 .609 4.65 4.65 0 0 1 4.645 4.645.3.3 0 1 0 .609 0A5.26 5.26 0 0 0 9.746 1z"></path>
  </svg>