  <svg version="1.1" xmlns="http://www.w3.org/2000/svg" xmlns:xlink="http://www.w3.org/1999/xlink" viewBox="0 0 16 16" id="circle-plus-small">
    <path d="M12 7.5v1H8.5V12h-1V8.5H4v-1h3.5V4h1v3.5H12z"></path>
    <path d="M8 14c-3.3 0-6-2.7-6-6s2.7-6 6-6 6 2.7 6 6-2.7 6-6 6m0 1c3.9 0 7-3.1 7-7s-3.1-7-7-7-7 3.1-7 7 3.1 7 7 7z"></path>
    <path fill="none" d="M0 0h16v16H0z"></path>
  </svg>