  <svg version="1.1" xmlns="http://www.w3.org/2000/svg" xmlns:xlink="http://www.w3.org/1999/xlink" viewBox="0 0 26 26" id="data-weave-color">
    <path fill="#087299" d="M24.725 10.743l-8.223 11.743-2.281-3.257 1.221-1.744L16.502 19l5.781-8.257L20 7.486l1.221-1.743 3.504 5zm-14.166-.233L7.221 5.743 6 7.486l4.559 6.512L13 10.51l-1.221-1.743-1.22 1.743z"></path>
    <path fill="#00A3E0" d="M21.221 5.743L9.498 22.486 1.275 10.743 6 4l1.221 1.743-3.504 5L9.498 19 20 4l1.221 1.743z"></path>
  </svg>