  <svg version="1.1" xmlns="http://www.w3.org/2000/svg" xmlns:xlink="http://www.w3.org/1999/xlink" viewBox="0 0 16 16" id="filter-small">
    <path fill="none" d="M13.079 3H2.921l2.101 3h5.956z"></path>
    <path d="M1 2l5 7.141V14l4-1.087V9.141L15 2H1zm4.022 4L2.921 3h10.158l-2.101 3H5.022z"></path>
  </svg>