  <svg version="1.1" xmlns="http://www.w3.org/2000/svg" xmlns:xlink="http://www.w3.org/1999/xlink" viewBox="0 0 26 26" id="image">
    <path d="M7 11.1c-1.1 0-2-.9-2-2s.9-2 2-2 2 .9 2 2-.9 2-2 2m0-3c-.6 0-1 .4-1 1s.4 1 1 1 1-.4 1-1-.4-1-1-1M2 20l4-4 2 2 8-10 8 10v1L16 9 8 19l-2-2-4 4zM2 4h22v1H2zm0 18h23v1H2z"></path>
    <path d="M2 4h1v18H2zm22 0h1v18h-1z"></path>
  </svg>