  <svg version="1.1" xmlns="http://www.w3.org/2000/svg" xmlns:xlink="http://www.w3.org/1999/xlink" viewBox="0 0 26 26" id="manage-center-color">
    <path fill="#00A3E0" d="M13 23.996l-9-6.295V4.4L6 3l5.5 3.851v2.442L6 5.442v11.217l7 4.897v2.44z"></path>
    <path fill="#087299" d="M21.999 17.701L13 23.996v-2.44l7-4.897V5.442l-5.5 3.85V6.851L20 3l1.999 1.4v13.301z"></path>
    <path fill="#114459" d="M18 11.227v2.442l-5 3.501-5-3.501v-2.442l5 3.501 5-3.501z"></path>
  </svg>