  <svg version="1.1" xmlns="http://www.w3.org/2000/svg" xmlns:xlink="http://www.w3.org/1999/xlink" viewBox="0 0 26 26" id="message-pull">
    <path d="M6.25 19.428c.794.197 1.596.359 2.406.486L6.25 21.599v-2.171zm15.791-.678c.237-.081.474-.166.709-.254v.254h-.709zm-18.791 0v-.254c.235.088.472.173.708.254H3.25z"></path>
    <path d="M13 2c-.168 0-.334.004-.5.01v11.419L7 9.578v1.221L13 15l6-4.201V9.578l-5.5 3.851V2.01c-.166-.006-.332-.01-.5-.01zm11 2h-7v1h6v12.057c-.138.056-.277.111-.416.164C19.532 18.401 16.312 19 13 19s-6.532-.599-9.584-1.779c-.139-.053-.278-.108-.416-.164V5h6V4H2v16h3v4l5.713-4H24V4z"></path>
  </svg>