  <svg version="1.1" xmlns="http://www.w3.org/2000/svg" xmlns:xlink="http://www.w3.org/1999/xlink" viewBox="0 0 26 26" id="message-queue-greyscale">
    <path fill="#58595A" d="M6.1 12.2L3.4 16H1l4.2-6h1.7l2.7 3.8 2.6-3.8h1.7l4.2 6h-2.4l-2.6-3.8-2.7 3.8H8.7"></path>
    <path fill="#989A9B" d="M22 20c1.3-2 2-4.4 2-7 0-2.6-.8-5-2-7-.5-.7-1-1.4-1.6-2H5.6C5 4.6 4.5 5.3 4 6h15.4c1.6 2 2.5 4.4 2.5 7 0 2.6-.9 5-2.5 7H4c.5.7 1 1.4 1.6 2h14.3l.7 1H23l-1.6-2.3c.2-.2.4-.5.6-.7z"></path>
  </svg>