  <svg version="1.1" xmlns="http://www.w3.org/2000/svg" xmlns:xlink="http://www.w3.org/1999/xlink" viewBox="0 0 26 26" id="partner-manager-greyscale">
    <path fill="#989A9B" d="M14 12.862V20.6L12 22l-4-2.801v-2.441l4 2.801v-5.656L6 9.702V22.6L4 24V8.302l1.743-1.221.257.18 8 5.601z"></path>
    <path fill="#58595A" d="M9.372 4.541L18 10.582v7.217l-1.5 1.05v-7.486L8.064 5.456l1.308-.915zM13 2l-1.307.916L20.5 9.083v6.965l1.5-1.05V8.302L13 2z"></path>
  </svg>