  <svg version="1.1" xmlns="http://www.w3.org/2000/svg" xmlns:xlink="http://www.w3.org/1999/xlink" viewBox="0 0 26 26" id="playground-color">
    <path fill="#114459" d="M11.737 15.416l-1.194 4.459-.966-.258 1.194-4.46.966.259zM6.931 8.768l-.574.82 2.681 1.877.574-.819-2.681-1.878zm9.34.426l-2.208 1.546.573.819 2.208-1.546-.573-.819z"></path>
    <path fill="#00A3E0" d="M3.5 8c0-.827.673-1.5 1.5-1.5s1.5.673 1.5 1.5S5.827 9.5 5 9.5 3.5 8.827 3.5 8M2 8c0 1.657 1.343 3 3 3s3-1.343 3-3-1.343-3-3-3-3 1.343-3 3zm6.601 13.5c0-.551.449-1 1-1s1 .449 1 1c0 .551-.448 1-1 1s-1-.449-1-1m-1.5 0c0 1.381 1.12 2.5 2.5 2.5s2.5-1.119 2.5-2.5-1.119-2.5-2.5-2.5-2.5 1.119-2.5 2.5zm9.399-14c0-1.654 1.346-3 3-3s3 1.346 3 3-1.346 3-3 3-3-1.346-3-3m-1.5 0c0 2.485 2.015 4.5 4.5 4.5S24 9.985 24 7.5 21.985 3 19.5 3 15 5.015 15 7.5z"></path>
    <path fill="#087299" d="M9.904 12.861c0-1.102.897-2 2-2s2 .898 2 2-.897 2-2 2-2-.897-2-2m-1.5 0c0 1.933 1.567 3.5 3.5 3.5s3.5-1.567 3.5-3.5-1.567-3.5-3.5-3.5-3.5 1.567-3.5 3.5z"></path>
  </svg>