<?xml version="1.0" encoding="UTF-8"?>
<svg xmlns="http://www.w3.org/2000/svg" width="256" height="256" viewBox="0 0 30 30" id="runtime-manager-color">
  <path fill="#087299" d="M23 13c0-5.523-4.477-10-10-10S3 7.477 3 13c0 4.66 3.187 8.575 7.5 9.685v-1.559c-3.474-1.068-6-4.302-6-8.126 0-4.694 3.806-8.5 8.5-8.5s8.5 3.806 8.5 8.5c0 2.338-.945 4.456-2.473 5.993l.873 1.246C21.81 18.417 23 15.848 23 13z"></path>
  <path fill="#00A3E0" d="M20.002 23l-4.425-6.319c1.16-.814 1.923-2.156 1.923-3.681 0-2.485-2.015-4.5-4.5-4.5S8.5 10.515 8.5 13s2.015 4.5 4.5 4.5c.227 0 .445-.034.663-.067L17.56 23h2.442zM10.5 13c0-1.381 1.119-2.5 2.5-2.5s2.5 1.119 2.5 2.5-1.119 2.5-2.5 2.5-2.5-1.119-2.5-2.5zM9 18l2 1.4V23H9v-5z"></path>
</svg>