  <svg version="1.1" xmlns="http://www.w3.org/2000/svg" xmlns:xlink="http://www.w3.org/1999/xlink" viewBox="0 0 26 26" id="studio-color">
    <path fill="#00A3E0" d="M23.312 16.779L13 24 2.688 16.779l3.654-2.558 1.743 1.22-1.91 1.338L13 21.558l6.825-4.779-3.653-2.558v-2.442l7.14 5zM13 2L2.688 9.221l7.14 5v-2.442L6.175 9.221 13 4.442l6.825 4.779-1.91 1.338 1.743 1.22 3.654-2.558L13 2z"></path>
    <path fill="#087299" d="M13.75 16.967l-1.5-1.051V9.033l1.5 1.051v6.883z"></path>
  </svg>