  <svg version="1.1" xmlns="http://www.w3.org/2000/svg" xmlns:xlink="http://www.w3.org/1999/xlink" viewBox="0 0 40 44" id="support">
    <path d="M6.364 42.357l-3.47-13.003c-.569-1.038-1.047-2.133-1.422-3.273L.964 26l4.803 17.999 7.896-5.557c-.382-.131-.758-.275-1.128-.429l-6.171 4.344"></path>
    <path d="M20 1c2.565 0 5.054.502 7.395 1.493 2.263.957 4.295 2.327 6.04 4.072s3.115 3.777 4.072 6.04C38.498 14.946 39 17.435 39 20c0 2.566-.502 5.054-1.493 7.395-.957 2.263-2.327 4.295-4.072 6.04s-3.777 3.115-6.04 4.072C25.054 38.498 22.565 39 20 39c-2.565 0-5.054-.502-7.395-1.493-2.263-.957-4.295-2.327-6.04-4.072s-3.115-3.777-4.072-6.04C1.502 25.054 1 22.566 1 20c0-2.565.502-5.053 1.493-7.395.957-2.263 2.327-4.295 4.072-6.04s3.777-3.115 6.04-4.072C14.946 1.502 17.435 1 20 1m0-1C8.954 0 0 8.954 0 20s8.954 20 20 20 20-8.954 20-20S31.046 0 20 0"></path>
    <path d="M21.336 16.85l3.493 13.036C23.333 30.617 21.679 31 20 31c-1.679 0-3.333-.383-4.829-1.114l3.493-13.036c.435.1.882.15 1.336.15.454 0 .901-.05 1.336-.15m.692-1.28c-.62.276-1.306.43-2.028.43s-1.408-.154-2.028-.43l-3.973 14.824C15.765 31.415 17.814 32 20 32c2.186 0 4.235-.585 6.001-1.606-1.048-3.909-2.676-9.987-3.973-14.824M20 9c1.103 0 2 .897 2 2s-.897 2-2 2-2-.897-2-2 .897-2 2-2m0-1c-1.657 0-3 1.343-3 3s1.343 3 3 3 3-1.343 3-3-1.343-3-3-3"></path>
  </svg>