  <svg version="1.1" xmlns="http://www.w3.org/2000/svg" xmlns:xlink="http://www.w3.org/1999/xlink" viewBox="0 0 26 26" id="worker-cloud">
    <path d="M5.883 14.344h9.216v1.444H5.883z"></path>
    <ellipse cx="15.099" cy="15.019" transform="rotate(-.349 15.099 15.019)" rx="1.448" ry="1.444"></ellipse>
    <path d="M18.696 10.954l3.083-.002.004 7.004-3.883-.003.079.002-13.758.01-.004-5.776 6.487-.004-.009-1.444-7.927.006.006 8.663 15.206-.01.673-.001 4.579.008-.005-9.906-3.108.001a5.063 5.063 0 0 0-5.045-4.54 5.062 5.062 0 0 0-3.745 1.652 4.352 4.352 0 0 0-5.417 2.687L7.503 9.3a2.897 2.897 0 0 1 3.386-1.31l.885.281.626-.684a3.635 3.635 0 0 1 2.675-1.18 3.608 3.608 0 0 1 3.618 3.436l-.002.138"></path>
  </svg>