  <svg version="1.1" xmlns="http://www.w3.org/2000/svg" xmlns:xlink="http://www.w3.org/1999/xlink" viewBox="0 0 60 60" id="world-small">
    <ellipse cx="30" cy="30" fill="none" rx="12" ry="25"></ellipse>
    <circle cx="30" cy="30" r="25" fill="none"></circle>
    <path d="M5 30h50M30 5v50"></path>
  </svg>