@startwbs

' Deloitte-PlantUML, version 0.1.0
' Ref; https://github.com/plantuml-stdlib/Azure-PlantUML/blob/master/dist/AzureCommon.puml

' Colors
' ##################################
'!define AZURE_COLOR #0072C6
'!define AZURE_BG_COLOR #FFFFFF
'!define AZURE_BORDER_COLOR #3C7FC0
'!define AZURE_SYMBOL_COLOR AZURE_COLOR

!define TECHN_FONT_SIZE 12
!define DELOITTE_GREEN #86BC25
!define DELOITTE_GREEN1 #E3E48D
!define DELOITTE_GREEN2 #C4D600
!define DELOITTE_GREEN4 #43B02A
!define DELOITTE_GREEN5 #009A44
!define DELOITTE_GREEN6 #046A38
!define DELOITTE_GREEN7 #2C5234
!define DELOITTE_TEAL1 #DDEFE8
!define DELOITTE_TEAL2 #9DD4CF
!define DELOITTE_TEAL3 #6FC2B4
!define DELOITTE_TEAL4 #00ABAB
!define DELOITTE_TEAL5 #0097A9
!define DELOITTE_TEAL6 #007680
!define DELOITTE_TEAL7 #004F59

!define DELOITTE_BLUE1 #A0DCFF
!define DELOITTE_BLUE2 #62B5E5
!define DELOITTE_BLUE3 #00A3E0
!define DELOITTE_BLUE4 #0076A8
!define DELOITTE_BLUE5 #005587
!define DELOITTE_BLUE6 #012169
!define DELOITTE_BLUE7 #041E42


!define DELOITTE_COOLGREY2 #D0D0CE
!define DELOITTE_COOLGREY4 #BBBCBC
!define DELOITTE_COOLGREY6 #A7A8AA
!define DELOITTE_COOLGREY7 #97999B
!define DELOITTE_COOLGREY9 #75787B
!define DELOITTE_COOLGREY10 #63666A
!define DELOITTE_COOLGREY11 #53565A


skinparam defaultTextAlignment center
skinparam defaultFontName 'Open Sans'
skinparam rectangleFontName 'Open Sans'

skinparam wrapWidth 200
skinparam maxMessageSize 150

skinparam rectangle {
    StereotypeFontSize 12
}

skinparam Arrow {
    Color #666666
    FontColor #666666
    FontSize 12

}

!define LAYOUT_TOP_DOWN top to bottom direction
!define LAYOUT_LEFT_RIGHT left to right direction

!definelong LAYOUT_AS_SKETCH
skinparam backgroundColor White
skinparam handwritten true
skinparam defaultFontName "Comic Sans MS"
center footer <font color=red>Warning:</font> Draft for Discussion
!enddefinelong

!include <tupadr3/common>
!include <tupadr3/material/home>

skinparam Shadowing true 

<style>
wbsDiagram {
   FontName 'Open Sans'
   :depth(0) {
      // will target root node
      BackgroundColor DELOITTE_BLUE7
      FontColor #FFFFFF
      FontSize 22
      RoundCorner 10
   }
   node {
    :depth(1) {
      LineThickness 2.5
      FontSize 16
      BackgroundColor DELOITTE_BLUE1
      RoundCorner 7
    }
   node {
    :depth(2) {
      LineStyle 1
      LineThickness 2.5
      FontSize 12
    }


}
</style>



* <$home> Architecture
** <&globe> Arc42
*** Introduction, Goals
*** Constraints
*** Context
*** Solution Strategy
*** Building Blocks
*** Runtime Views
*** ...
** Platforms
*** Reinsurance Capabilities
*** Finance
*** Analytics
*** ...
** FAQ
*** References
** Production \nPlanning
*** Applications
*** Dispositions
*** Transition States
*** Refactor
*** Replatform
*** ..
** Templates
*** High Level Design
*** Low Level Design
*** Key Design Decision
** Solution \nReview Board


@endwbs